info:
  name: Notas de ajuste
  type: http
  seq: 2

http:
  method: GET
  url: "{{url_api}}/v1/adjustment-notes"
  params:
    - name: filter[identification]
      value: ""
      type: query
      description: Buscar por número de identificación
      disabled: true
    - name: filter[names]
      value: ""
      type: query
      description: Buscar por el nombre del proveedor
      disabled: true
    - name: filter[number]
      value: ""
      type: query
      description: Buscar por número de nota de ajuste
      disabled: true
    - name: filter[prefix]
      value: ""
      type: query
      description: Buscar por prefijo de rango de numeración
      disabled: true
    - name: filter[reference_code]
      value: ""
      type: query
      description: Buscar por código de referencia
      disabled: true
    - name: filter[status]
      value: ""
      type: query
      description: Buscar por estado del documento. 1 = validado, 0 si no esta validado
      disabled: true
    - name: filter[per_page]
      value: "10"
      type: query
      description: Cantidad de registros por pagina. Por defecto tiene el valor de 10
      disabled: true
    - name: filter[created_at][start_date]
      value: 2025-10-01
      type: query
      description: Fecha de inicio (usando para buscar por un rango de fechas)
      disabled: true
    - name: filter[created_at][end_date]
      value: 2025-10-31
      type: query
      description: Fecha de fin (usado para buscar por un rango de fechas)
      disabled: true
  auth: inherit

settings:
  encodeUrl: true
  timeout: 0
  followRedirects: true
  maxRedirects: 5

examples:
  - name: 200-Notas de ajuste
    request:
      url: http://api.test/v1/adjustment-notes?filter[identification]&filter[names]&filter[number]&filter[prefix]&filter[reference_code]&filter[status]
      method: GET
      params:
        - name: filter[identification]
          value: ""
          type: query
          description: Buscar por numero de identificacion
        - name: filter[names]
          value: ""
          type: query
          description: Buscar por el nombre del proveedor
        - name: filter[number]
          value: ""
          type: query
          description: Buscar por numero de nota de ajuste
        - name: filter[prefix]
          value: ""
          type: query
          description: Buscar por prefijo de rango de numeracion
        - name: filter[reference_code]
          value: ""
          type: query
          description: Buscar por codigo de referencia
        - name: filter[status]
          value: ""
          type: query
          description: Buscar por estado del documento. 1 = validado, 0 si no esta validado
    response:
      statusText: "200"
      headers:
        - name: Content-Type
          value: application/json
      body:
        type: json
        data: |-
          {
              "status": "OK",
              "message": "Solicitud exitosa",
              "data": {
                  "data": [
                      {
                          "id": 75,
                          "number": "NDA40",
                          "api_client_name": "Halltec",
                          "reference_code": "REF006",
                          "identification": "123456789",
                          "graphic_representation_name": "Alan Turing",
                          "trade_name": null,
                          "names": "Alan Turing",
                          "email": "alanturing@enigmasas.com",
                          "total": "40000.00",
                          "status": 1,
                          "errors": [
                              "Regla: NSAJ44b, Notificación: Nit o Documento de Identificación informado No corresponde al registrado en el RUT con respecto a la razón social o nombre comercial suministrado.",
                              "Regla: NSAJ43b, Notificación: Nombre informado No corresponde al registrado en el RUT con respecto al Nit suminstrado."
                          ],
                          "created_at": "10-02-2025 10:22:38 AM"
                      },
                      {
                          "id": 74,
                          "number": "NDA39",
                          "api_client_name": "Halltec",
                          "reference_code": "REF005",
                          "identification": "123456789",
                          "graphic_representation_name": "Alan Turing",
                          "trade_name": null,
                          "names": "Alan Turing",
                          "email": "alanturing@enigmasas.com",
                          "total": "40000.00",
                          "status": 1,
                          "errors": [
                              "Regla: NSAJ44b, Notificación: Nit o Documento de Identificación informado No corresponde al registrado en el RUT con respecto a la razón social o nombre comercial suministrado.",
                              "Regla: NSAJ43b, Notificación: Nombre informado No corresponde al registrado en el RUT con respecto al Nit suminstrado."
                          ],
                          "created_at": "10-02-2025 10:21:25 AM"
                      },
                      {
                          "id": 73,
                          "number": "NDA38",
                          "api_client_name": "Halltec",
                          "reference_code": "REF004",
                          "identification": "123456789",
                          "graphic_representation_name": "Alan Turing",
                          "trade_name": null,
                          "names": "Alan Turing",
                          "email": "alanturing@enigmasas.com",
                          "total": "40000.00",
                          "status": 1,
                          "errors": [
                              "Regla: NSAJ44b, Notificación: Nit o Documento de Identificación informado No corresponde al registrado en el RUT con respecto a la razón social o nombre comercial suministrado.",
                              "Regla: NSAJ43b, Notificación: Nombre informado No corresponde al registrado en el RUT con respecto al Nit suminstrado."
                          ],
                          "created_at": "10-02-2025 10:20:17 AM"
                      },
                      {
                          "id": 72,
                          "number": "NDA37",
                          "api_client_name": "Halltec",
                          "reference_code": "REF003",
                          "identification": "123456789",
                          "graphic_representation_name": "Alan Turing",
                          "trade_name": null,
                          "names": "Alan Turing",
                          "email": "alanturing@enigmasas.com",
                          "total": "40000.00",
                          "status": 1,
                          "errors": [
                              "Regla: NSAJ44b, Notificación: Nit o Documento de Identificación informado No corresponde al registrado en el RUT con respecto a la razón social o nombre comercial suministrado.",
                              "Regla: NSAJ43b, Notificación: Nombre informado No corresponde al registrado en el RUT con respecto al Nit suminstrado."
                          ],
                          "created_at": "10-02-2025 10:14:05 AM"
                      },
                      {
                          "id": 71,
                          "number": "NDA36",
                          "api_client_name": "Halltec",
                          "reference_code": "REF002",
                          "identification": "123456789",
                          "graphic_representation_name": "Alan Turing",
                          "trade_name": null,
                          "names": "Alan Turing",
                          "email": "alanturing@enigmasas.com",
                          "total": "40000.00",
                          "status": 1,
                          "errors": [
                              "Regla: NSAJ44b, Notificación: Nit o Documento de Identificación informado No corresponde al registrado en el RUT con respecto a la razón social o nombre comercial suministrado.",
                              "Regla: NSAJ43b, Notificación: Nombre informado No corresponde al registrado en el RUT con respecto al Nit suminstrado."
                          ],
                          "created_at": "10-02-2025 10:13:32 AM"
                      },
                      {
                          "id": 69,
                          "number": "NDA35",
                          "api_client_name": "Halltec",
                          "reference_code": "REF001",
                          "identification": "123456789",
                          "graphic_representation_name": "Alan Turing",
                          "trade_name": null,
                          "names": "Alan Turing",
                          "email": "alanturing@enigmasas.com",
                          "total": "40000.00",
                          "status": 1,
                          "errors": [
                              "Regla: NSAJ44b, Notificación: Nit o Documento de Identificación informado No corresponde al registrado en el RUT con respecto a la razón social o nombre comercial suministrado.",
                              "Regla: NSAJ43b, Notificación: Nombre informado No corresponde al registrado en el RUT con respecto al Nit suminstrado."
                          ],
                          "created_at": "07-02-2025 05:06:24 PM"
                      },
                      {
                          "id": 68,
                          "number": "NDA34",
                          "api_client_name": "Halltec",
                          "reference_code": "001",
                          "identification": "1100970785",
                          "graphic_representation_name": "Alan Turing",
                          "trade_name": null,
                          "names": "Alan Turing",
                          "email": "alanturing@enigmasas.com",
                          "total": "80000.00",
                          "status": 1,
                          "errors": [
                              "Regla: NSAJ44b, Notificación: Nit o Documento de Identificación informado No corresponde al registrado en el RUT con respecto a la razón social o nombre comercial suministrado.",
                              "Regla: NSAJ43b, Notificación: Nombre informado No corresponde al registrado en el RUT con respecto al Nit suminstrado."
                          ],
                          "created_at": "06-02-2025 09:45:54 PM"
                      },
                      {
                          "id": 67,
                          "number": "NDA33",
                          "api_client_name": "Halltec",
                          "reference_code": "002",
                          "identification": "123456789",
                          "graphic_representation_name": "Alan Turing",
                          "trade_name": null,
                          "names": "Alan Turing",
                          "email": "alanturing@enigmasas.com",
                          "total": "80000.00",
                          "status": 1,
                          "errors": [
                              "Regla: NSAJ44b, Notificación: Nit o Documento de Identificación informado No corresponde al registrado en el RUT con respecto a la razón social o nombre comercial suministrado.",
                              "Regla: NSAJ43b, Notificación: Nombre informado No corresponde al registrado en el RUT con respecto al Nit suminstrado."
                          ],
                          "created_at": "06-02-2025 05:01:09 PM"
                      },
                      {
                          "id": 66,
                          "number": "NDA32",
                          "api_client_name": "Halltec",
                          "reference_code": "003",
                          "identification": "123456789",
                          "graphic_representation_name": "Alan Turing",
                          "trade_name": null,
                          "names": "Alan Turing",
                          "email": "alanturing@enigmasas.com",
                          "total": "80000.00",
                          "status": 1,
                          "errors": [
                              "Regla: NSAJ44b, Notificación: Nit o Documento de Identificación informado No corresponde al registrado en el RUT con respecto a la razón social o nombre comercial suministrado.",
                              "Regla: NSAJ43b, Notificación: Nombre informado No corresponde al registrado en el RUT con respecto al Nit suminstrado."
                          ],
                          "created_at": "06-02-2025 04:29:32 PM"
                      },
                      {
                          "id": 65,
                          "number": "NDA31",
                          "api_client_name": "Halltec",
                          "reference_code": "004",
                          "identification": "17879221513",
                          "graphic_representation_name": "Stephanie M Rodriguez",
                          "trade_name": null,
                          "names": "Stephanie M Rodriguez",
                          "email": "fefa940@gmail.com",
                          "total": "80000.00",
                          "status": 1,
                          "errors": [],
                          "created_at": "06-02-2025 03:08:06 PM"
                      }
                  ],
                  "pagination": {
                      "total": 39,
                      "per_page": 10,
                      "current_page": 1,
                      "last_page": 4,
                      "from": 1,
                      "to": 10,
                      "links": [
                          {
                              "url": null,
                              "label": "&laquo; Anterior",
                              "page": null,
                              "active": false
                          },
                          {
                              "url": "http://api.test/v1/adjustment-notes?page=1",
                              "label": 1,
                              "page": 1,
                              "active": true
                          },
                          {
                              "url": "http://api.test/v1/adjustment-notes?page=2",
                              "label": 2,
                              "page": 2,
                              "active": false
                          },
                          {
                              "url": "http://api.test/v1/adjustment-notes?page=3",
                              "label": 3,
                              "page": 3,
                              "active": false
                          },
                          {
                              "url": "http://api.test/v1/adjustment-notes?page=4",
                              "label": 4,
                              "page": 4,
                              "active": false
                          },
                          {
                              "url": "http://api.test/v1/adjustment-notes?page=2",
                              "label": "Siguiente &raquo;",
                              "page": 2,
                              "active": false
                          }
                      ]
                  }
              }
          }

docs: |-
  Recuerde que el token de acceso caduca cada hora.

  La respuesta del endpoint arroja el total de las notas de ajuste, por pagina 10 resultados, pagina actual, ultima pagina, desde, hasta y los links de navegación entre el endpoint de notas de ajuste, los anteriores campos con el fin de paginar la respuesta.

  Para navegar entre las páginas del endpoint de get Notas de ajuste use el query param page y el número de página al que quiere navegar, si el número de página no existe el objeto data será vacio.
