info:
  name: Facturas
  type: http
  seq: 3

http:
  method: GET
  url: "{{url_api}}/v1/bills"
  headers:
    - name: Accept
      value: application/json
  params:
    - name: filter[identification]
      value: ""
      type: query
      description: Buscar por número de identificación
      disabled: true
    - name: filter[names]
      value: ""
      type: query
      description: Buscar por el nombre del cliente
      disabled: true
    - name: filter[number]
      value: ""
      type: query
      description: Buscar por número de factura
      disabled: true
    - name: filter[prefix]
      value: ""
      type: query
      description: Buscar por prefijo de rango de numeracion
      disabled: true
    - name: filter[reference_code]
      value: ""
      type: query
      description: Buscar por codigo de referencia
      disabled: true
    - name: filter[status]
      value: ""
      type: query
      description: Buscar por estado del documento. 1 = validado, 0 si no esta validado
      disabled: true
    - name: filter[per_page]
      value: "10"
      type: query
      description: Cantidad de registros por pagina. Por defecto tiene el valor de 10
      disabled: true
    - name: filter[created_at][start_date]
      value: 2025-10-01
      type: query
      description: Fecha de inicio (usando para buscar por un rango de fechas)
      disabled: true
    - name: filter[created_at][end_date]
      value: 2025-10-31
      type: query
      description: Fecha de fin (usado para buscar por un rango de fechas)
      disabled: true
  body:
    type: text
    data: ""
  auth: inherit

settings:
  encodeUrl: true
  timeout: 0
  followRedirects: true
  maxRedirects: 5

examples:
  - name: 200 - Facturas
    request:
      url: "{{url_api}}/v1/bills"
      method: GET
      headers:
        - name: Accept
          value: application/json
      body:
        type: text
        data: ""
    response:
      statusText: "200"
      headers:
        - name: Server
          value: nginx
        - name: Content-Type
          value: application/json
        - name: Transfer-Encoding
          value: chunked
        - name: Connection
          value: keep-alive
        - name: Vary
          value: Accept-Encoding
        - name: Cache-Control
          value: no-cache, private
        - name: Date
          value: Tue, 30 Apr 2024 14:58:01 GMT
        - name: X-RateLimit-Limit
          value: "60"
        - name: X-RateLimit-Remaining
          value: "59"
        - name: X-Frame-Options
          value: SAMEORIGIN
        - name: X-XSS-Protection
          value: 1; mode=block
        - name: X-Content-Type-Options
          value: nosniff
        - name: Content-Encoding
          value: gzip
      body:
        type: json
        data: |-
          {
              "status": "OK",
              "message": "Solicitud exitosa",
              "data": {
                  "data": [
                      {
                          "id": 400,
                          "document": {
                              "code": "01",
                              "name": "Factura electrónica de Venta"
                          },
                          "number": "SETP990000203",
                          "api_client_name": "Halltec",
                          "reference_code": "I3",
                          "identification": "123456789",
                          "graphic_representation_name": "Alan Turing",
                          "company": "",
                          "trade_name": "",
                          "names": "Alan Turing",
                          "email": "alanturing@enigmasas.com",
                          "total": "90000.00",
                          "status": 1,
                          "errors": [
                              "Regla: FAJ43b, Notificación: Nombre informado No corresponde al registrado en el RUT con respecto al Nit suminstrado.",
                              "Regla: FAJ43b, Notificación: Nombre informado No corresponde al registrado en el RUT con respecto al Nit suminstrado."
                          ],
                          "send_email": 1,
                          "has_claim": 0,
                          "is_negotiable_instrument": 0,
                          "payment_form": {
                              "code": "1",
                              "name": "Pago de contado"
                          },
                          "created_at": "17-07-2024 03:54:10 PM",
                          "credit_notes": [],
                          "debit_notes": []
                      },
                      {
                          "id": 397,
                          "document": {
                              "code": "01",
                              "name": "Factura electrónica de Venta"
                          },
                          "number": "SETP990000202",
                          "reference_code": null,
                          "identification": "1100970785",
                          "graphic_representation_name": "Pepito Perez",
                          "company": "",
                          "trade_name": null,
                          "names": "Pepito Perez",
                          "email": "pepito@hotmail.com",
                          "total": "50000.00",
                          "status": 1,
                          "errors": [
                              "Regla: FAJ43b, Notificación: Nombre informado No corresponde al registrado en el RUT con respecto al Nit suminstrado.",
                              "Regla: FAJ43b, Notificación: Nombre informado No corresponde al registrado en el RUT con respecto al Nit suminstrado."
                          ],
                          "send_email": 1,
                          "has_claim": 0,
                          "is_negotiable_instrument": 0,
                          "payment_form": {
                              "code": "1",
                              "name": "Pago de contado"
                          },
                          "created_at": "17-07-2024 09:57:47 AM",
                          "credit_notes": [
                              {
                                  "id": 105,
                                  "number": "NC62"
                              }
                          ],
                          "debit_notes": [
                              {
                                  "id": 43,
                                  "number": "ND28"
                              }
                          ]
                      },
                      {
                          "id": 396,
                          "document": {
                              "code": "01",
                              "name": "Factura electrónica de Venta"
                          },
                          "number": "SETP990000201",
                          "reference_code": null,
                          "identification": "1100970785",
                          "graphic_representation_name": "Pepito Perez",
                          "company": "",
                          "trade_name": null,
                          "names": "Pepito Perez",
                          "email": "pepito@hotmail.com",
                          "total": "27000.00",
                          "status": 1,
                          "errors": [
                              "Regla: FAJ43b, Notificación: Nombre informado No corresponde al registrado en el RUT con respecto al Nit suminstrado.",
                              "Regla: FAJ43b, Notificación: Nombre informado No corresponde al registrado en el RUT con respecto al Nit suminstrado."
                          ],
                          "send_email": 1,
                          "has_claim": 0,
                          "is_negotiable_instrument": 0,
                          "payment_form": {
                              "code": "1",
                              "name": "Pago de contado"
                          },
                          "created_at": "17-07-2024 09:46:05 AM",
                          "credit_notes": [
                              {
                                  "id": 106,
                                  "number": "NC63"
                              }
                          ],
                          "debit_notes": []
                      },
                      {
                          "id": 386,
                          "document": {
                              "code": "01",
                              "name": "Factura electrónica de Venta"
                          },
                          "number": "SETP990000200",
                          "reference_code": null,
                          "identification": "12345666",
                          "graphic_representation_name": "Pepito Perez",
                          "company": "",
                          "trade_name": null,
                          "names": "Pepito Perez",
                          "email": "pepito@hotmail.com",
                          "total": "27000.00",
                          "status": 1,
                          "errors": [
                              "Regla: FAJ43b, Notificación: Nombre informado No corresponde al registrado en el RUT con respecto al Nit suminstrado.",
                              "Regla: FAJ43b, Notificación: Nombre informado No corresponde al registrado en el RUT con respecto al Nit suminstrado."
                          ],
                          "send_email": 1,
                          "has_claim": 0,
                          "is_negotiable_instrument": 0,
                          "payment_form": {
                              "code": "1",
                              "name": "Pago de contado"
                          },
                          "created_at": "16-07-2024 09:44:08 PM",
                          "credit_notes": [],
                          "debit_notes": []
                      },
                      {
                          "id": 377,
                          "document": {
                              "code": "01",
                              "name": "Factura electrónica de Venta"
                          },
                          "number": "SETP990000199",
                          "reference_code": null,
                          "identification": "06141002791018",
                          "graphic_representation_name": "Pepito Perez",
                          "company": "",
                          "trade_name": "",
                          "names": "Pepito Perez",
                          "email": null,
                          "total": "50000.00",
                          "status": 1,
                          "errors": [
                              "Regla: FAJ43b, Notificación: Nombre informado No corresponde al registrado en el RUT con respecto al Nit suminstrado.",
                              "Regla: FAJ43b, Notificación: Nombre informado No corresponde al registrado en el RUT con respecto al Nit suminstrado."
                          ],
                          "send_email": 0,
                          "has_claim": 0,
                          "is_negotiable_instrument": 0,
                          "payment_form": {
                              "code": "1",
                              "name": "Pago de contado"
                          },
                          "created_at": "08-07-2024 04:24:27 PM",
                          "credit_notes": [],
                          "debit_notes": []
                      },
                      {
                          "id": 376,
                          "document": {
                              "code": "01",
                              "name": "Factura electrónica de Venta"
                          },
                          "number": "SETP990000198",
                          "reference_code": null,
                          "identification": "900825759",
                          "graphic_representation_name": "Halltec S.a.s",
                          "company": "Halltec S.a.s",
                          "trade_name": null,
                          "names": "",
                          "email": null,
                          "total": "90000.00",
                          "status": 1,
                          "errors": [
                              "Regla: FAJ43b, Notificación: Nombre informado No corresponde al registrado en el RUT con respecto al Nit suminstrado.",
                              "Regla: FAJ43b, Notificación: Nombre informado No corresponde al registrado en el RUT con respecto al Nit suminstrado."
                          ],
                          "send_email": 0,
                          "has_claim": 0,
                          "is_negotiable_instrument": 0,
                          "payment_form": {
                              "code": "1",
                              "name": "Pago de contado"
                          },
                          "created_at": "08-07-2024 04:15:06 PM",
                          "credit_notes": [],
                          "debit_notes": []
                      },
                      {
                          "id": 375,
                          "document": {
                              "code": "01",
                              "name": "Factura electrónica de Venta"
                          },
                          "number": "SETP990000197",
                          "reference_code": null,
                          "identification": "900825759",
                          "graphic_representation_name": "Halltec S.a.s",
                          "company": "Halltec S.a.s",
                          "trade_name": null,
                          "names": "",
                          "email": null,
                          "total": "90000.00",
                          "status": 1,
                          "errors": [
                              "Regla: FAJ43b, Notificación: Nombre informado No corresponde al registrado en el RUT con respecto al Nit suminstrado.",
                              "Regla: FAJ43b, Notificación: Nombre informado No corresponde al registrado en el RUT con respecto al Nit suminstrado."
                          ],
                          "send_email": 0,
                          "has_claim": 0,
                          "is_negotiable_instrument": 0,
                          "payment_form": {
                              "code": "1",
                              "name": "Pago de contado"
                          },
                          "created_at": "08-07-2024 03:43:33 PM",
                          "credit_notes": [],
                          "debit_notes": []
                      },
                      {
                          "id": 374,
                          "document": {
                              "code": "01",
                              "name": "Factura electrónica de Venta"
                          },
                          "number": "SETP990000196",
                          "reference_code": null,
                          "identification": "9247016",
                          "graphic_representation_name": "Ryley Von",
                          "company": "",
                          "trade_name": "",
                          "names": "Ryley Von",
                          "email": "sydnie27@hotmail.com",
                          "total": "90000.00",
                          "status": 1,
                          "errors": [
                              "Regla: FAJ43b, Notificación: Nombre informado No corresponde al registrado en el RUT con respecto al Nit suminstrado.",
                              "Regla: FAJ43b, Notificación: Nombre informado No corresponde al registrado en el RUT con respecto al Nit suminstrado."
                          ],
                          "send_email": 1,
                          "has_claim": 0,
                          "is_negotiable_instrument": 0,
                          "payment_form": {
                              "code": "1",
                              "name": "Pago de contado"
                          },
                          "created_at": "08-07-2024 03:31:22 PM",
                          "credit_notes": [],
                          "debit_notes": []
                      },
                      {
                          "id": 373,
                          "document": {
                              "code": "01",
                              "name": "Factura electrónica de Venta"
                          },
                          "number": "SETP990000195",
                          "reference_code": null,
                          "identification": "222222222222",
                          "graphic_representation_name": "Consumidor final",
                          "company": "",
                          "trade_name": null,
                          "names": "Consumidor final",
                          "email": "",
                          "total": "20000.00",
                          "status": 1,
                          "errors": [
                              "Regla: FAJ43b, Notificación: Nombre informado No corresponde al registrado en el RUT con respecto al Nit suminstrado.",
                              "Regla: FAJ43b, Notificación: Nombre informado No corresponde al registrado en el RUT con respecto al Nit suminstrado."
                          ],
                          "send_email": 0,
                          "has_claim": 0,
                          "is_negotiable_instrument": 0,
                          "payment_form": {
                              "code": "1",
                              "name": "Pago de contado"
                          },
                          "created_at": "01-07-2024 11:17:59 AM",
                          "credit_notes": [],
                          "debit_notes": []
                      },
                      {
                          "id": 372,
                          "document": {
                              "code": "01",
                              "name": "Factura electrónica de Venta"
                          },
                          "number": "SETP990000194",
                          "reference_code": null,
                          "identification": "122345566",
                          "graphic_representation_name": "Pepito Perez",
                          "company": "",
                          "trade_name": null,
                          "names": "Pepito Perez",
                          "email": "pepito@hotmail.com",
                          "total": "20000.00",
                          "status": 1,
                          "errors": [
                              "Regla: FAJ43b, Notificación: Nombre informado No corresponde al registrado en el RUT con respecto al Nit suminstrado.",
                              "Regla: FAJ43b, Notificación: Nombre informado No corresponde al registrado en el RUT con respecto al Nit suminstrado."
                          ],
                          "send_email": 1,
                          "has_claim": 0,
                          "is_negotiable_instrument": 0,
                          "payment_form": {
                              "code": "1",
                              "name": "Pago de contado"
                          },
                          "created_at": "27-06-2024 04:48:24 PM",
                          "credit_notes": [],
                          "debit_notes": []
                      }
                  ],
                  "pagination": {
                      "total": 162,
                      "per_page": 10,
                      "current_page": 1,
                      "last_page": 17,
                      "from": 1,
                      "to": 10,
                      "links": [
                          {
                              "url": null,
                              "label": "&laquo; Anterior",
                              "active": false
                          },
                          {
                              "url": "http://api.test/v1/bills?page=1",
                              "label": 1,
                              "active": true,
                              "page": 1
                          },
                          {
                              "url": "http://api.test/v1/bills?page=2",
                              "label": 2,
                              "active": false,
                              "page": 2
                          },
                          {
                              "url": "http://api.test/v1/bills?page=3",
                              "label": 3,
                              "active": false,
                              "page": 3
                          },
                          {
                              "url": "http://api.test/v1/bills?page=4",
                              "label": 4,
                              "active": false,
                              "page": 4
                          },
                          {
                              "url": null,
                              "label": "...",
                              "active": false
                          },
                          {
                              "url": "http://api.test/v1/bills?page=17",
                              "label": 17,
                              "active": false,
                              "page": 17
                          },
                          {
                              "url": "http://api.test/v1/bills?page=2",
                              "label": "Siguiente &raquo;",
                              "active": false
                          }
                      ]
                  }
              }
          }

docs: |-
  **Nota:** Es necesario el envio del (access_token) token de acceso en la creacion de la factura.  
  para ver como generar el token. use el siguiente link. [Auth endpoint](https://martian-spaceship-418933.postman.co/workspace/api.factus.com.co~af54fc7a-b3d9-40a7-9f62-273f3ec355b9/request/22150862-d94026db-94e7-430e-81b1-86cd3e7d9de6?ctx=documentation)

  Recuerde que el token de acceso caduca cada hora.

  La respuesta del endpoint arroja el total de las facturas, por pagina 10 resultados, pagina actual, ultima pagina, desde, hasta y los links de navegación entre el endpoint de facturas, los anteriores campos con el fin de paginar la respuesta.

  Para navegar entre las páginas del endpoint de get Facturas use el query param page y el número de página al que quiere navegar, si el número de página no existe el objeto data será vacio.
